{
    "Description": "AWS",
    "StartLine": 37,
    "EndLine": 37,
    "StartColumn": 19,
    "EndColumn": 38,
    "Context": "\t\t\"aws_secret= \\\"AKIAIMNOJVGFDXXXE4OA\\\"\":          true,",
    "Secret": "AKIAIMNOJVGFDXXXE4OA",
    "File": "checks_test.go",
    "Commit": "ec2fc9d6cb0954fb3b57201cf6133c48d8ca0d29",
    "Entropy": 0,
    "Author": "zricethezav",
    "Email": "thisispublicanyways@gmail.com",
    "Date": "2018-01-28 17:39:00 -0500 -0500",
    "Message": "[update] entropy check",
    "Tags": [],
    "RuleID": "aws-access-token"
}